…
results = 
  tibble(group_size = group_sizes) %>%
  mutate(
    output_lists = map(group_size, ~rerun(simulations, shared_birthday(.x))),
    estimate_df = map(output_lists, ~tibble(shared_birthday = unlist(.)))
     )%>%
  select(-output_lists) %>%
  unnest(estimate_df) %>%
  group_by(group_size) %>%
  summarize(probability = mean(shared_birthday), .groups = 'drop')

results
```

    ## # A tibble: 49 × 2
    ##    group_size probability
    ##         <int>       <dbl>
    ##  1          2      0.0035
    ##  2          3      0.0087
    ##  3          4      0.0167
    ##  4          5      0.0273
    ##  5          6      0.0427
    ##  6          7      0.0546
    ##  7          8      0.0724
    ##  8          9      0.0921
    ##  9         10      0.118 
    ## 10         11      0.139 
    ## # ℹ 39 more rows
…
Create a `city_state` variable and then summarize within cities.

``` r
data_summary = data %>%
  mutate(city_state = str_c(city, ", ", state)) %>%
  group_by(city_state) %>%
  summarize(
    total_homicides = n(),
    unsolved_homicides = sum(disposition %in% c("Closed without arrest", "Open/No arrest"))
  )
data_summary
```

    ## # A tibble: 51 × 3
    ##    city_state      total_homicides unsolved_homicides
    ##    <chr>                     <int>              <int>
    ##  1 Albuquerque, NM             378                146
    ##  2 Atlanta, GA                 973                373
    ##  3 Baltimore, MD              2827               1825
    ##  4 Baton Rouge, LA             424                196
    ##  5 Birmingham, AL              800                347
    ##  6 Boston, MA                  614                310
    ##  7 Buffalo, NY                 521                319
    ##  8 Charlotte, NC               687                206
    ##  9 Chicago, IL                5535               4073
    ## 10 Cincinnati, OH              694                309
    ## # ℹ 41 more rows
